{
    "type": "package",
    "name": "gitlab.com/id-11458528",
    "summary": "test project",
    "license": "MIT",
    "version": "1.0.0",
    "exposed-modules": [
        "Adder"
    ],
    "elm-version": "0.19.0 <= v < 0.20.0",
    "dependencies": {
        "elm/core": "1.0.2 <= v < 2.0.0"
    },
    "test-dependencies": {}
}
